\relax 
\providecommand\HyperFirstAtBeginDocument{\AtBeginDocument}
\HyperFirstAtBeginDocument{\ifx\hyper@anchor\@undefined
\global\let\oldcontentsline\contentsline
\gdef\contentsline#1#2#3#4{\oldcontentsline{#1}{#2}{#3}}
\global\let\oldnewlabel\newlabel
\gdef\newlabel#1#2{\newlabelxx{#1}#2}
\gdef\newlabelxx#1#2#3#4#5#6{\oldnewlabel{#1}{{#2}{#3}}}
\AtEndDocument{\ifx\hyper@anchor\@undefined
\let\contentsline\oldcontentsline
\let\newlabel\oldnewlabel
\fi}
\fi}
\global\let\hyper@last\relax 
\gdef\HyperFirstAtBeginDocument#1{#1}
\providecommand\HyField@AuxAddToFields[1]{}
\select@language{UKenglish}
\@writefile{toc}{\select@language{UKenglish}}
\@writefile{lof}{\select@language{UKenglish}}
\@writefile{lot}{\select@language{UKenglish}}
\citation{zitova2003image}
\@writefile{toc}{\contentsline {chapter}{\numberline {1}Introduction}{7}{chapter.1}}
\@writefile{lof}{\addvspace {10\p@ }}
\@writefile{lot}{\addvspace {10\p@ }}
\@writefile{toc}{\contentsline {section}{\numberline {1.1}Image Registration}{7}{section.1.1}}
\@writefile{toc}{\contentsline {section}{\numberline {1.2}Unsupervised Feature Learning}{7}{section.1.2}}
\citation{fischer2012introduction}
\citation{salakhutdinov2009deep}
\citation{huang2012learning}
\citation{bickerman2010learning}
\citation{lee2009unsupervised}
\@writefile{toc}{\contentsline {chapter}{\numberline {2}Preliminaries}{8}{chapter.2}}
\@writefile{lof}{\addvspace {10\p@ }}
\@writefile{lot}{\addvspace {10\p@ }}
\@writefile{toc}{\contentsline {section}{\numberline {2.1}Restricted Boltzmann Machines}{8}{section.2.1}}
\@writefile{lof}{\contentsline {figure}{\numberline {2.1}{\ignorespaces An example of a Restricted Boltzmann Machine and a Boltzmann Machine, left and right respectively. Note the red connections linking the visible nodes and the hidden nodes within themselves present in the Generalised Boltzmann machine which are missing in the Restricted Boltzmann Machine}}{8}{figure.2.1}}
\@writefile{toc}{\contentsline {subsection}{\numberline {2.1.1}Probability Densities and Conditional Distributions}{9}{subsection.2.1.1}}
\@writefile{toc}{\contentsline {subsubsection}{Binary-Valued Visible Nodes}{9}{section*.4}}
\@writefile{toc}{\contentsline {subsubsection}{Real-Valued Visible Nodes}{10}{section*.5}}
\@writefile{lof}{\contentsline {figure}{\numberline {2.2}{\ignorespaces A demonstration of the structure of an RBM}}{11}{figure.2.2}}
\@writefile{toc}{\contentsline {section}{\numberline {2.2}Convolutional Restricted Boltzmann Machines}{11}{section.2.2}}
\@writefile{toc}{\contentsline {subsection}{\numberline {2.2.1}Probability Densities and Conditional Distributions}{12}{subsection.2.2.1}}
\@writefile{toc}{\contentsline {subsubsection}{Binary Valued Visible Nodes}{12}{section*.6}}
\@writefile{toc}{\contentsline {subsubsection}{Real Valued Visible Nodes}{12}{section*.7}}
\citation{huang2012learning}
\citation{lee2011unsupervised}
\citation{lee2011unsupervised}
\@writefile{lof}{\contentsline {figure}{\numberline {2.3}{\ignorespaces An example structure of a CRBM with Max Pooling; $L$ visible layers and $K$ hidden layers and pooling layers, with a convolution filter size of $2\times 2$ and a pooling ratio of $2$. The step size in convolving is 2 for visual clarity but in most implementations the step size will be 1.}}{13}{figure.2.3}}
\newlabel{fig:CRBMMaxPoolStructure}{{2.3}{13}{An example structure of a CRBM with Max Pooling; $L$ visible layers and $K$ hidden layers and pooling layers, with a convolution filter size of $2\times 2$ and a pooling ratio of $2$. The step size in convolving is 2 for visual clarity but in most implementations the step size will be 1}{figure.2.3}{}}
\@writefile{toc}{\contentsline {subsection}{\numberline {2.2.2}Introducing Probabilistic max-pooling}{13}{subsection.2.2.2}}
\citation{lee2011unsupervised}
\citation{carreira2005contrastive}
\citation{carreira2005contrastive}
\@writefile{toc}{\contentsline {section}{\numberline {2.3}Contrastive Divergence - Approximating the Likelihood Gradient}{14}{section.2.3}}
\citation{hinton2002training}
\citation{carreira2005contrastive}
\citation{hinton2002training}
\citation{lee2011unsupervised}
\@writefile{toc}{\contentsline {subsection}{\numberline {2.3.1}Inducing Sparsity}{15}{subsection.2.3.1}}
\@writefile{toc}{\contentsline {subsection}{\numberline {2.3.2}Training}{16}{subsection.2.3.2}}
\@writefile{toc}{\contentsline {subsubsection}{CRBM Training Algorithm}{16}{section*.8}}
\citation{hinton2010practical}
\@writefile{toc}{\contentsline {subsubsection}{Notes on the CRBM Training Algorithm}{17}{section*.9}}
\citation{bengio2007scaling}
\citation{begio2007scaling}
\citation{erhan2010does}
\citation{hinton2006fast}
\citation{bengio2007greedy}
\citation{boureau2008sparse}
\citation{lee2011unsupervised}
\citation{bengio2009learning}
\citation{hinton2006fast}
\@writefile{toc}{\contentsline {section}{\numberline {2.4}Deep Belief Networks}{18}{section.2.4}}
\citation{hinton2006fast}
\citation{hinton2006fast}
\citation{erhan2010does}
\citation{learned2006data}
\@writefile{toc}{\contentsline {subsection}{\numberline {2.4.1}Training Deep Belief Networks}{19}{subsection.2.4.1}}
\@writefile{toc}{\contentsline {section}{\numberline {2.5}Image Registration via Deep Congealing}{19}{section.2.5}}
\citation{learned2006data}
\@writefile{toc}{\contentsline {subsection}{\numberline {2.5.1}The Congealing Framework}{20}{subsection.2.5.1}}
\@writefile{toc}{\contentsline {subsubsection}{Congealing Algorithm}{20}{section*.10}}
\citation{huang2012learning}
\@writefile{toc}{\contentsline {subsection}{\numberline {2.5.2}Incorporating Feature Learning}{21}{subsection.2.5.2}}
\citation{huang2012learning}
\@writefile{toc}{\contentsline {section}{\numberline {2.6}Whitening}{22}{section.2.6}}
\citation{van1996modelling}
\@writefile{lof}{\contentsline {figure}{\numberline {2.4}{\ignorespaces A graph showing the entropy of a pooling unit given the average activation probability}}{23}{figure.2.4}}
\@writefile{toc}{\contentsline {subsection}{\numberline {2.6.1}Discrete Fourier Transforms and Flattening Power Spectra}{23}{subsection.2.6.1}}
\citation{friedman1987exploratory}
\citation{olshausen1997sparse}
\citation{olshausen1997sparse}
\citation{lee2011unsupervised}
\citation{lee2011unsupervised}
\citation{liao2007whitenedfaces}
\citation{van1996modelling}
\citation{liao2007whitenedfaces}
\@writefile{toc}{\contentsline {subsection}{\numberline {2.6.2}Image-Class Specific Whitening}{24}{subsection.2.6.2}}
\@writefile{lof}{\contentsline {figure}{\numberline {2.5}{\ignorespaces An image pre- and post- whitening process on the left and right respectively. Note how edges have been highlighted as a result, and parts of the image with very little variation (i.e. a low frequency of change) have been muted. The Torch code used to produce this image has been adapted from \cite  {lee2011unsupervised}'s Matlab code. }}{25}{figure.2.5}}
\@writefile{toc}{\contentsline {section}{\numberline {2.7}Approaching Image Alignment from an Information Theory perspective}{25}{section.2.7}}
\citation{tishby2000information}
\citation{tishby2000information}
\citation{tishby2015deep}
\@writefile{toc}{\contentsline {subsection}{\numberline {2.7.1}The Information Bottleneck Principle}{26}{subsection.2.7.1}}
\citation{tishby2015deep}
\citation{shamir2010learning}
\citation{tishby2015deep}
\citation{tishby2015deep}
\citation{bengio2013representation}
\@writefile{toc}{\contentsline {subsection}{\numberline {2.7.2}Deep Neural Networks and the Information Bottleneck}{27}{subsection.2.7.2}}
\citation{bell1997independent}
\citation{lee2011unsupervised}
\citation{lee2011unsupervised}
\citation{lee2011unsupervised}
\citation{huang2012learning}
\citation{huang2012learning}
\citation{huang2012learning}
\@writefile{toc}{\contentsline {section}{\numberline {2.8}A Proposed Extension; All-Layer Congealing with Adaptive Whitening}{28}{section.2.8}}
\@writefile{toc}{\contentsline {subsection}{\numberline {2.8.1}Considering Different Depths of Convolutional Deep Belief Network}{28}{subsection.2.8.1}}
\citation{huang2012learning}
\citation{tishby2015deep}
\citation{huang2012learning}
\@writefile{toc}{\contentsline {subsection}{\numberline {2.8.2}All-Layer Congealing; Considering all the depths of the CDBN}{29}{subsection.2.8.2}}
\@writefile{toc}{\contentsline {subsection}{\numberline {2.8.3}Arguments For and Against All-Layer Congealing}{29}{subsection.2.8.3}}
\@writefile{toc}{\contentsline {subsection}{\numberline {2.8.4}On Adaptive Whitening}{30}{subsection.2.8.4}}
\citation{hinton2010practical}
\citation{yosinski2012visually}
\citation{Collobert_torch7:a}
\citation{lee2011unsuper}
\@writefile{toc}{\contentsline {chapter}{\numberline {3}Experiments}{31}{chapter.3}}
\@writefile{lof}{\addvspace {10\p@ }}
\@writefile{lot}{\addvspace {10\p@ }}
\@writefile{toc}{\contentsline {section}{\numberline {3.1}Torch, lua and the nn package}{31}{section.3.1}}
\citation{LFWTech}
\citation{lee2011unsupervised}
\citation{lee2011unsupervised}
\citation{hinton2010practical}
\citation{salakhutdinov2009learning}
\@writefile{toc}{\contentsline {subsection}{\numberline {3.1.1}The Data and the Model}{32}{subsection.3.1.1}}
\@writefile{toc}{\contentsline {subsubsection}{The CDBN Model}{32}{section*.11}}
\@writefile{toc}{\contentsline {subsubsection}{Generating the Hidden Layer to be used as the Visible Layer to continue Layer-Wise Training.}{33}{section*.12}}
\@writefile{toc}{\contentsline {subsubsection}{Performing Convolutions and Pooling}{33}{section*.13}}
\@writefile{toc}{\contentsline {subsection}{\numberline {3.1.2}The Parameters; Initialising and Learning}{33}{subsection.3.1.2}}
\citation{This assumption is not so unreasonable given we consider the entire data-set.}
\citation{hinton2010practical}
\citation{hinton2010practical}
\@writefile{toc}{\contentsline {subsubsection}{Initialising the Parameters}{34}{section*.14}}
\@writefile{toc}{\contentsline {subsubsection}{Learning the parameters}{34}{section*.15}}
\citation{erhan2010does}
\citation{hinton2010practical}
\@writefile{toc}{\contentsline {subsubsection}{Momentum and Weight-Decay}{35}{section*.16}}
\@writefile{toc}{\contentsline {subsection}{\numberline {3.1.3}Statistics to Collect and Expected Behaviour}{36}{subsection.3.1.3}}
\citation{lee2011unsupervised}
\citation{krizhevsky2012imagenet}
\citation{lee2011unsupervised}
\@writefile{toc}{\contentsline {subsubsection}{Patch Updates; or the Detriment of Speed v.s. Completeness}{37}{section*.17}}
\@writefile{toc}{\contentsline {subsection}{\numberline {3.1.4}Learning Filters, Visualising Filters and Training Results}{37}{subsection.3.1.4}}
\citation{lee2008sparse}
\citation{erhan2009visualizing}
\@writefile{toc}{\contentsline {section}{\numberline {3.2}Implementing Congealing}{38}{section.3.2}}
\@writefile{toc}{\contentsline {chapter}{\numberline {4}Discussion}{40}{chapter.4}}
\@writefile{lof}{\addvspace {10\p@ }}
\@writefile{lot}{\addvspace {10\p@ }}
\@writefile{toc}{\contentsline {subsection}{\numberline {4.0.1}Generating New Images}{40}{subsection.4.0.1}}
\@writefile{toc}{\contentsline {subsection}{\numberline {4.0.2}Concerning the 3rd Dimension}{40}{subsection.4.0.2}}
\@writefile{toc}{\contentsline {subsection}{\numberline {4.0.3}Combining Generative Power with the Congealing Framework}{40}{subsection.4.0.3}}
\@writefile{toc}{\contentsline {subsection}{\numberline {4.0.4}Applying other image registration techniques to the deepest layer of the CDBN}{40}{subsection.4.0.4}}
\@writefile{toc}{\contentsline {chapter}{\numberline {5}Conclusion}{42}{chapter.5}}
\@writefile{lof}{\addvspace {10\p@ }}
\@writefile{lot}{\addvspace {10\p@ }}
\bibstyle{abbrvnat}
\bibdata{bibtexfile}
\bibcite{bell1997independent}{{1}{1997}{{Bell and Sejnowski}}{{}}}
\bibcite{bengio2009learning}{{2}{2009}{{Bengio}}{{}}}
\bibcite{bengio2007greedy}{{3}{2007{a}}{{Bengio et~al.}}{{Bengio, Lamblin, Popovici, Larochelle, et~al.}}}
\bibcite{bengio2007scaling}{{4}{2007{b}}{{Bengio et~al.}}{{Bengio, LeCun, et~al.}}}
\bibcite{bengio2013representation}{{5}{2013}{{Bengio et~al.}}{{Bengio, Courville, and Vincent}}}
\bibcite{bickerman2010learning}{{6}{2010}{{Bickerman et~al.}}{{Bickerman, Bosley, Swire, and Keller}}}
\bibcite{boureau2008sparse}{{7}{2008}{{Boureau et~al.}}{{Boureau, Cun, et~al.}}}
\bibcite{carreira2005contrastive}{{8}{2005}{{Carreira-Perpinan and Hinton}}{{}}}
\bibcite{Collobert_torch7:a}{{9}{}{{Collobert et~al.}}{{Collobert, Kavukcuoglu, and Farabet}}}
\bibcite{erhan2009visualizing}{{10}{2009}{{Erhan et~al.}}{{Erhan, Bengio, Courville, and Vincent}}}
\bibcite{erhan2010does}{{11}{2010}{{Erhan et~al.}}{{Erhan, Bengio, Courville, Manzagol, Vincent, and Bengio}}}
\bibcite{fischer2012introduction}{{12}{2012}{{Fischer and Igel}}{{}}}
\bibcite{friedman1987exploratory}{{13}{1987}{{Friedman}}{{}}}
\bibcite{hinton2010practical}{{14}{2010}{{Hinton}}{{}}}
\@writefile{toc}{\contentsline {chapter}{Bibliography}{43}{section*.18}}
\bibcite{hinton2002training}{{15}{2002}{{Hinton}}{{}}}
\bibcite{hinton2006fast}{{16}{2006}{{Hinton et~al.}}{{Hinton, Osindero, and Teh}}}
\bibcite{huang2012learning}{{17}{2012}{{Huang et~al.}}{{Huang, Mattar, Lee, and Learned-Miller}}}
\bibcite{LFWTech}{{18}{2007}{{Huang et~al.}}{{Huang, Ramesh, Berg, and Learned-Miller}}}
\bibcite{krizhevsky2012imagenet}{{19}{2012}{{Krizhevsky et~al.}}{{Krizhevsky, Sutskever, and Hinton}}}
\bibcite{learned2006data}{{20}{2006}{{Learned-Miller}}{{}}}
\bibcite{lee2008sparse}{{21}{2008}{{Lee et~al.}}{{Lee, Ekanadham, and Ng}}}
\bibcite{lee2009unsupervised}{{22}{2009}{{Lee et~al.}}{{Lee, Pham, Largman, and Ng}}}
\bibcite{lee2011unsupervised}{{23}{2011}{{Lee et~al.}}{{Lee, Grosse, Ranganath, and Ng}}}
\bibcite{liao2007whitenedfaces}{{24}{2007}{{Liao et~al.}}{{Liao, Luo, and Tian}}}
\bibcite{olshausen1997sparse}{{25}{1997}{{Olshausen and Field}}{{}}}
\bibcite{salakhutdinov2009learning}{{26}{2009}{{Salakhutdinov}}{{}}}
\bibcite{salakhutdinov2009deep}{{27}{2009}{{Salakhutdinov and Hinton}}{{}}}
\bibcite{shamir2010learning}{{28}{2010}{{Shamir et~al.}}{{Shamir, Sabato, and Tishby}}}
\bibcite{tishby2015deep}{{29}{2015}{{Tishby and Zaslavsky}}{{}}}
\bibcite{tishby2000information}{{30}{2000}{{Tishby et~al.}}{{Tishby, Pereira, and Bialek}}}
\bibcite{van1996modelling}{{31}{1996}{{van~der Schaaf and van Hateren}}{{}}}
\bibcite{yosinski2012visually}{{32}{2012}{{Yosinski and Lipson}}{{}}}
\bibcite{zitova2003image}{{33}{2003}{{Zitova and Flusser}}{{}}}
\@writefile{toc}{\contentsline {chapter}{\numberline {A}Appendix}{46}{appendix.A}}
\@writefile{lof}{\addvspace {10\p@ }}
\@writefile{lot}{\addvspace {10\p@ }}
\@writefile{toc}{\contentsline {section}{\numberline {A.1}Whitening; A Biological Perspective}{46}{section.A.1}}
\@writefile{toc}{\contentsline {section}{\numberline {A.2}Torch Tricks}{46}{section.A.2}}
\@writefile{toc}{\contentsline {section}{\numberline {A.3}Folder Layout and general Information Flow}{46}{section.A.3}}
\@writefile{toc}{\contentsline {section}{\numberline {A.4}Code}{46}{section.A.4}}
\@writefile{toc}{\contentsline {chapter}{\numberline {B}More Guidelines}{47}{appendix.B}}
\@writefile{lof}{\addvspace {10\p@ }}
\@writefile{lot}{\addvspace {10\p@ }}
\@writefile{toc}{\contentsline {section}{\numberline {B.1}Titlepage}{47}{section.B.1}}
\@writefile{toc}{\contentsline {section}{\numberline {B.2}Declaration}{47}{section.B.2}}
\global\@altsecnumformattrue
